'Bamboo-1'
'Bamboo-2'
'Bamboo-3'
'Bamboo-4'
'Bamboo-5'
'Bamboo-6'
'Bamboo-7'
'Bamboo-8'
'Bamboo-9'
'Charachters-1'
'Charachters-2'
'Charachters-3'
'Charachters-4'
'Charachters-5'
'Charachters-6'
'Charachters-7'
'Charachters-8'
'Charachters-9'
'Dots-1' 
'Dots-2'
'Dots-3'
'Dots-4'
'Dots-5'
'Dots-6'
'Dots-7'
'Dots-8'
'Dots-9'
'East'
'Fa'
'Middle'
'North'
'Plain'
'South'
'West'